{
  "error": false,
  "maintainers": [
    {
      "main_maintainer": false,
      "github_username": "ujjwalkirorimal",
      "name": "Ujjwal Kirorimal"
    }
  ],
  "donate_url": "https://www.youtube.com/watch?v=dQw4w9WgXcQ",
  "website_url": "https://www.youtube.com/watch?v=dQw4w9WgXcQ",
  "news_url": "https://www.youtube.com/watch?v=dQw4w9WgXcQ",
  "datetime": 1640676293,
  "filename": "PixelExperience_violet-12.0-20211228-0643-UNOFFICIAL.zip",
  "id": "testid",
  "size": 1537932330,
  "url": "https://playground.idkmaybe123.workers.dev/0:/bot/PixelExperience_violet-12.0-20211228-0643-UNOFFICIAL.zip",
  "version": "twelve",
  "filehash": "1f2ada35ef70d4b90d5843b5a0bf5a25"
}
